[
  {
    "id": "IS-W",
    "name": "Integral Strength - Warm up",
    "sets": [
      {
        "name": "Warm up",
        "items": [
          { "name": "Single Arm Circles (10x2)", "type": "untimed" },
          { "name": "Arm Crossing (10x)", "type": "untimed" },
          { "name": "Hip Circles (10x)", "type": "untimed" },
          { "name": "Squat Side-to-Side (5x)", "type": "untimed" },
          { "name": "Squat Circles (5x2)", "type": "untimed" },
          { "name": "Elbow Rotations (5-10x)", "type": "untimed" },
          { "name": "Wrist Side-to-Side (5-10x)", "type": "untimed" },
          { "name": "Reverse Wrist Stretch (5-10x)", "type": "untimed" },
          { "name": "Forward Wrist Stretch (5-10x)", "type": "untimed" },
          { "name": "A-Frame Pulse / Cobra Side-to-Side (5x2)", "type": "untimed" },
          { "name": "Bodyweight Squats (5x)", "type": "untimed" }
        ]
      }
    ],
    "weekdays": [1,2,3,4,5,6,7]
  },
  {
    "id": "IS-SP",
    "name": "Integral Strength - Strength & Power",
    "sets": [
      {
        "name": "Integral Strength",
        "repeats": 5,
        "items":[
          { "name": "Broad Jump (3x)", "type": "untimed", "skip": true },
          { "name": "Shrimp Squats (weak leg)", "type": "timed", "duration": 30, "warmup": 5, "skip": true },
          { "name": "Shrimp Squats (other leg)", "type": "timed", "duration": 30, "warmup": 5, "skip": true },
          { "name": "Chin Ups", "type": "timed", "duration": 30, "warmup": 5, "skip": true },
          { "name": "L-Sit", "type": "timed", "duration": 30, "warmup": 5 },
          { "name": "Break", "type": "break", "duration": 120, "autostart": true }
        ]
      }
    ],
    "weekdays": [2, 4, 6]
  },
  {
    "id": "IS-Super",
    "name": "Integral Strength - Superset",
    "sets": [
      {
        "name": "Integral Strength",
        "repeats": 5,
        "items":[
          { "name": "Inverted Press", "type": "timed", "duration": 30, "warmup": 5 },
          { "name": "Push Ups", "type": "timed", "duration": 30, "warmup": 5 },

          { "name": "Hollow Body, Face Up", "type": "timed", "duration":30, "warmup": 5 },
          { "name": "Hollow Body, Side 1", "type": "timed", "duration": 30, "warmup": 5 },
          { "name": "Hollow Body, Side 2", "type": "timed", "duration": 30, "warmup": 5 },
          { "name": "Hollow Body, Face Down", "type": "timed", "duration": 30, "warmup": 5 },

          { "name": "Bridge", "type": "timed", "duration": 30, "warmup": 5 },

          { "name": "Break", "type": "break", "duration": 120, "autostart": true }
        ]
      }
    ],
    "weekdays": [2, 4, 6]
  },
  {
    "id": "IS-ICC",
    "name": "Integral Strength - Conditioning Circuit",
    "sets": [
      {
        "name": "Circuit",
        "repeats": 5,
        "items":[
          { "name": "Broad Jump (2x)", "type": "untimed", "skip": true },
          { "name": "Shrimp Squats (weak leg)", "type": "timed", "duration": 10, "warmup": 5, "skip": true },
          { "name": "Shrimp Squats (other leg)", "type": "timed", "duration": 10, "warmup": 5, "skip": true },
          { "name": "Chin Ups", "type": "timed", "duration": 10, "warmup": 5, "skip": true },
          { "name": "L-Sit", "type": "timed", "duration": 10, "warmup": 5 },
          { "name": "Inverted Press", "type": "timed", "duration": 10, "warmup": 5 },
          { "name": "Push Ups", "type": "timed", "duration": 10, "warmup": 5 },
          { "name": "Hollow Body, Face Up", "type": "timed", "duration": 10, "warmup": 5 },
          { "name": "Bridge", "type": "timed", "duration": 10, "warmup": 5 },
          { "name": "Break", "type": "break", "duration": 120, "autostart": true }
        ]
      }
    ],
    "weekdays": [2, 4, 6]
  },
  {
    "id": "Klinik-legs",
    "name": "Klinik, ben",
    "sets": [
      {
        "name": "Squats",
        "repeats": 3,
        "items": [
          { "name": "Squats x 10-15", "type": "untimed" },
          { "name": "Break", "type": "break", "duration": 60, "autostart": true }
        ]
      },
      {
        "name": "One-legged squats",
        "repeats": 2,
        "items": [
          { "name": "One-legged squats, 2 x 10", "type": "untimed" },
          { "name": "Break", "type": "break", "duration": 60, "autostart": true }
        ]
      },
      {
        "name": "Lunges",
        "repeats": 3,
        "items": [
          { "name": "Lunges, 2 x 10", "type": "untimed" },
          { "name": "Break", "type": "break", "duration": 60, "autostart": true }
        ]
      },
      {
        "name": "Jump Squats",
        "repeats": 3,
        "items": [
          { "name": "Jump Squats", "type": "untimed", "skip": true },
          { "name": "Break", "type": "break", "duration": 60, "autostart": true, "skip": true }
        ]
      },
      {
        "name": "One-legged stand",
        "items": [
          { "name": "Stand, first leg", "type": "timed", "duration": 120 },
          { "name": "Stand, second leg", "type": "timed", "duration": 120, "autostart": true },
          { "name": "Break", "type": "break", "duration": 60, "autostart": true }
        ]
      },
      {
        "name": "Hip Abduction",
        "repeats": 3,
        "items": [
          { "name": "Both legs", "type": "untimed" },
          { "name": "Break", "type": "break", "duration": 60, "autostart": true }
        ]
      },
      {
        "name": "Sideways walk",
        "items": [
          { "name": "Sideways walk, both legs", "type": "untimed" },
          { "name": "Break", "type": "break", "duration": 60, "autostart": true }
        ]
      }
    ],
    "weekdays": []
  },
  {
    "id": "IS-Sprint",
    "name": "Sprint",
    "sets": [
      {
        "name": "Sprints",
        "repeats": 3,
        "items":[
          { "name": "Sprint", "type": "timed", "duration": 60, "warmup": 5 },
          { "name": "Break", "type": "break", "duration": 60, "autostart": true }
        ]
      }
    ],
    "weekdays": []
  },
  {
    "id": "IS-JumpRope",
    "name": "Jump Rope",
    "sets": [
      {
        "name": "Jump Rope",
        "repeats": 3,
        "items":[
          { "name": "Jump Rope", "type": "timed", "duration": 60, "warmup": 5 },
          { "name": "Break", "type": "break", "duration": 60, "autostart": true }
        ]
      }
    ],
    "weekdays": []
  }
]
